メールアドレス,パスワード,姓,名,"セイ
 （全角カタカナ）","メイ
 （全角カタカナ）","性別
 （１：男性、２：女性）","誕生日
 (1980-01-01)","身長
 （半角数字)","体重
 （半角数字）","血液型
 （1:A型、2:B型、3:0型、4:AB型、5:不明）","最終学歴
 （1:中学校、2:高校、3:専門学校、
 4:短期大学、5:大学、6:高等専門学校）","卒業状態
 （1:卒業、2:中退、3：在学中）","収入
 （半角数字、カンマなし)","住所都道府県
 （半角数字）",住所市区町村,住所番地以下,"続柄
 （1:長男、2:次男、3:三男以下、
 4:長女、5:次女、6:三女以下）","職業
 （）","職場都道府県
 （半角数字）",職場市区町村,職場備考,国籍,"婚歴
 （1:初婚、2:離婚（１回）、
 3:離婚（２回以上））","子供
 （1:なし、2:１人（親権あり）、3:２人以上（親権あり）、2:１人（親権なし）、3:２人以上（親権なし））",趣味,資格,本人資産,その他資産,"お酒
 （1:付き合い程度、2:頻繁、3:一切飲まない）","たばこ
 （1:吸う、2:吸わない）","宗教
 （1:あり、2:なし）",宗教名,お相手への希望,"希望年齢
 （0:こだわらない、1:20〜25、2:25〜30、3:30〜40、4:40〜45、5:45〜50、6:50〜60、7:60〜）","希望年収
 （0:こだわらない、1:〜200万円、2:200万円〜300万円、3:300万円〜400万円、4:400万円〜500万円、5:500万円〜600万円、6:600万円〜700万円、7:700万円〜800万円、8:800万円〜900万円、9:900万円〜1000万円、10:1000万円〜）","希望都道府県
 （半角数字）",希望市区町村,"相手家族同居
 （1:可能、2:難しい、3:相手による）","自分家族同居
 （1:希望する、2:希望しない）","結婚後子供
 （1:希望する、2:希望しない）","養子
 （1:希望する、2:希望しない）","再婚者
 （1:可能、2:難しい、3:相手による）",団体からのPR
uchiba@yahoo.co.jp,testtest,CSV苗字,CSV名前,CSVセイ,CSVメイ,2,2000/1/2,200,100,3,3,3,1000000,3,福岡市福岡,早良区沢r区,3,,5,佐賀県佐賀県,探し探し,日本,3,3,趣味なし,資格なし,資産なし,その他資産なし,3,2,1,宗教あり,希望なし,2,4,10,他の市区町村,3,1,2,1,2,特徴がない。残念
uchiba@yahoo.co.jp,testtest,CSV苗字,CSV名前,CSVセイ,CSVメイ,2,2000/1/2,200,100,3,3,3,1000000,3,福岡市福岡,早良区沢r区,3,,5,佐賀県佐賀県,探し探し,日本,3,3,趣味なし,資格なし,資産なし,その他資産なし,3,2,1,宗教あり,希望なし,2,4,10,他の市区町村,3,1,2,1,2,特徴がない。残念
uchiba@yahoo.co.jp,testtest,CSV苗字,CSV名前,CSVセイ,CSVメイ,2,2000/1/2,200,100,3,3,3,1000000,3,福岡市福岡,早良区沢r区,3,,5,佐賀県佐賀県,探し探し,日本,3,3,趣味なし,資格なし,資産なし,その他資産なし,3,2,1,宗教あり,希望なし,2,4,10,他の市区町村,3,1,2,1,2,特徴がない。残念
uchiba@yahoo.co.jp,testtest,CSV苗字,CSV名前,CSVセイ,CSVメイ,2,2000/1/2,200,100,3,3,3,1000000,3,福岡市福岡,早良区沢r区,3,,5,佐賀県佐賀県,探し探し,日本,3,3,趣味なし,資格なし,資産なし,その他資産なし,3,2,1,宗教あり,希望なし,2,4,10,他の市区町村,3,1,2,1,2,特徴がない。残念